Simulating data to estimate power
…
                       x2 = ~ 3 + 2*x1 + rnorm(n, 0, sd = 0.5),
                       y = ~ 5 + x1 + x2 + g1*x1*x2 + 10 * rnorm(n)) %>%
  ## Define varying parameters: here, sample size and effect size
  define(n = seq(100, 300, by = 50),
       g1 = seq(-1, 1, by = 0.5)) %>% 
  ## Generate 10 repetitions
  generate(10) %>% 
  ## Fit models
  fit(lm = ~lm(y ~ x1*x2))%>% 
  ## Tidy each simulation using broom::tidy and
  ## bind together
  tidy_fits
simpr_tidy

# A tibble: 1,000 × 10
   .sim_id     n    g1   rep Source term    estimate std.error statistic p.value
     <int> <dbl> <dbl> <int> <chr>  <chr>      <dbl>     <dbl>     <dbl>   <dbl>
 1       1   100    -1     1 lm     (Inter…    11.0      8.24      1.33  1.87e-1
 2       1   100    -1     1 lm     x1         11.0      4.51      2.44  1.67e-2
 3       1   100    -1     1 lm     x2         -1.24     2.21     -0.562 5.75e-1
 4       1   100    -1     1 lm     x1:x2      -1.53     0.307    -4.99  2.69e-6
 5       2   150    -1     1 lm     (Inter…    -1.17     5.72     -0.204 8.38e-1
 6       2   150    -1     1 lm     x1          3.13     3.85      0.812 4.18e-1
 7       2   150    -1     1 lm     x2          2.26     1.67      1.36  1.77e-1
 8       2   150    -1     1 lm     x1:x2      -1.38     0.254    -5.42  2.40e-7
 9       3   200    -1     1 lm     (Inter…     5.98     5.37      1.11  2.67e-1
10       3   200    -1     1 lm     x1         -2.12     3.28     -0.648 5.18e-1
# ℹ 990 more rows
…
